…
    ## Warning: `data_frame()` was deprecated in tibble 1.1.0.
    ## Please use `tibble()` instead.
    ## This warning is displayed once every 8 hours.
    ## Call `lifecycle::last_warnings()` to see where this warning was generated.

``` r
boot_straps
```

    ## # A tibble: 1,000 x 2
    ##    strap_number strap_sample      
    ##           <int> <list>            
    ##  1            1 <tibble [250 x 3]>
    ##  2            2 <tibble [250 x 3]>
    ##  3            3 <tibble [250 x 3]>
    ##  4            4 <tibble [250 x 3]>
    ##  5            5 <tibble [250 x 3]>
    ##  6            6 <tibble [250 x 3]>
    ##  7            7 <tibble [250 x 3]>
    ##  8            8 <tibble [250 x 3]>
    ##  9            9 <tibble [250 x 3]>
    ## 10           10 <tibble [250 x 3]>
    ## # ... with 990 more rows

``` r
boot_straps %>% 
  filter(strap_number %in% 1:2) %>% 
  mutate(strap_sample = map(strap_sample, ~arrange(.x, x))) %>% 
  pull(strap_sample)
```

    ## [[1]]
    ## # A tibble: 250 x 3
    ##         x  error       y
    ##     <dbl>  <dbl>   <dbl>
    ##  1 -1.29   1.40  -0.454 
    ##  2 -0.989 -1.97  -2.93  
    ##  3 -0.914 -0.908 -1.65  
    ##  4 -0.914 -0.908 -1.65  
    ##  5 -0.805  0.292 -0.123 
    ##  6 -0.805  0.292 -0.123 
    ##  7 -0.665 -0.544 -0.539 
    ##  8 -0.641 -0.416 -0.338 
    ##  9 -0.606 -0.106  0.0774
    ## 10 -0.606 -0.106  0.0774
    ## # ... with 240 more rows
    ## 
    ## [[2]]
    ## # A tibble: 250 x 3
    ##         x  error      y
    ##     <dbl>  <dbl>  <dbl>
    ##  1 -1.89   1.62  -2.04 
    ##  2 -1.89   1.62  -2.04 
    ##  3 -1.29   1.40  -0.454
    ##  4 -1.29   1.40  -0.454
    ##  5 -1.00   0.832 -0.169
    ##  6 -0.914 -0.908 -1.65 
    ##  7 -0.805  0.292 -0.123
    ##  8 -0.665 -0.544 -0.539
    ##  9 -0.665 -0.544 -0.539
    ## 10 -0.665 -0.544 -0.539
    ## # ... with 240 more rows
…
    ## <resample [250 x 3]> 216, 163, 142, 68, 24, 81, 175, 115, 139, 182, ...

``` r
as_data_frame(boot_straps$strap[[1]])
```

    ## Warning: `as_data_frame()` was deprecated in tibble 2.0.0.
    ## Please use `as_tibble()` instead.
    ## The signature and semantics have changed, see `?as_tibble`.
    ## This warning is displayed once every 8 hours.
    ## Call `lifecycle::last_warnings()` to see where this warning was generated.

    ## # A tibble: 250 x 3
    ##         x  error     y
    ##     <dbl>  <dbl> <dbl>
    ##  1  2.52   0.528 10.1 
    ##  2  2.06   1.74   9.91
    ##  3  2.18   1.00   9.53
    ##  4  2.47  -0.224  9.17
    ##  5 -0.989 -1.97  -2.93
    ##  6  0.431 -0.106  3.19
    ##  7  0.666  0.285  4.28
    ##  8  0.793 -0.101  4.28
    ##  9  0.348 -0.497  2.55
    ## 10  1.98   0.745  8.70
    ## # ... with 240 more rows
…
