…
    ## [1] 0.4530695

## CV using modelr

USe `modelr::crossv_mc`

``` r
cv_df = 
  crossv_mc(nonlin_df, 100) # 100 trainings and tests

cv_df %>% pull(train) %>% .[[1]] %>% as_tibble()
```

    ## # A tibble: 79 x 3
    ##       id      x       y
    ##    <int>  <dbl>   <dbl>
    ##  1     1 0.0383  0.0341
    ##  2     2 0.908  -2.73  
    ##  3     3 0.0768  0.118 
    ##  4     4 0.426   1.30  
    ##  5     5 0.442   0.929 
    ##  6     6 0.886  -2.25  
    ##  7     7 0.430   0.324 
    ##  8     8 0.499   0.338 
    ##  9     9 0.440   0.581 
    ## 10    10 0.306   1.01  
    ## # ... with 69 more rows
…
